<?xml version="1.0" encoding="UTF-8" standalone="no"?>
<svg
   xmlns:dc="http://purl.org/dc/elements/1.1/"
   xmlns:cc="http://creativecommons.org/ns#"
   xmlns:rdf="http://www.w3.org/1999/02/22-rdf-syntax-ns#"
   xmlns:svg="http://www.w3.org/2000/svg"
   xmlns="http://www.w3.org/2000/svg"
   xmlns:sodipodi="http://sodipodi.sourceforge.net/DTD/sodipodi-0.dtd"
   xmlns:inkscape="http://www.inkscape.org/namespaces/inkscape"
   version="1.0"
   width="1080"
   height="1080"
   viewBox="0 0 810 810"
   preserveAspectRatio="xMidYMid meet"
   id="svg8"
   sodipodi:docname="Icon.svg"
   inkscape:export-filename="/home/es20490446e/Downloads/Icon.png"
   inkscape:export-xdpi="96"
   inkscape:export-ydpi="96"
   inkscape:version="0.92.5 (2060ec1f9f, 2020-04-08)">
  <defs
     id="defs12" />
  <sodipodi:namedview
     pagecolor="#ffffff"
     bordercolor="#666666"
     borderopacity="1"
     objecttolerance="10"
     gridtolerance="10"
     guidetolerance="10"
     inkscape:pageopacity="0"
     inkscape:pageshadow="2"
     inkscape:window-width="1800"
     inkscape:window-height="1040"
     id="namedview10"
     showgrid="false"
     units="px"
     inkscape:showpageshadow="false"
     inkscape:zoom="0.20484108"
     inkscape:cx="-73.178476"
     inkscape:cy="926.20028"
     inkscape:window-x="120"
     inkscape:window-y="0"
     inkscape:window-maximized="1"
     inkscape:current-layer="svg8" />
  <metadata
     id="metadata2">
Created by potrace 1.15, written by Peter Selinger 2001-2017
<rdf:RDF>
  <cc:Work
     rdf:about="">
    <dc:format>image/svg+xml</dc:format>
    <dc:type
       rdf:resource="http://purl.org/dc/dcmitype/StillImage" />
    <dc:title></dc:title>
    <dc:creator>
      <cc:Agent>
        <dc:title></dc:title>
      </cc:Agent>
    </dc:creator>
    <dc:rights>
      <cc:Agent>
        <dc:title></dc:title>
      </cc:Agent>
    </dc:rights>
    <cc:license
       rdf:resource="" />
  </cc:Work>
</rdf:RDF>
</metadata>
  <g
     id="g22"
     transform="translate(0,-18)">
    <ellipse
       ry="273.13773"
       rx="355.98517"
       cy="465.66522"
       cx="409.05936"
       id="path15"
       style="opacity:1;fill:#555753;fill-opacity:1;stroke:none;stroke-width:35.89295578;stroke-linecap:round;stroke-linejoin:miter;stroke-miterlimit:4;stroke-dasharray:none;stroke-opacity:1;paint-order:normal" />
    <g
       style="fill:#555753;stroke:#888a85"
       id="g6"
       transform="matrix(0.08523404,0,0,-0.08523404,12.631597,1137.1231)">
      <path
         sodipodi:nodetypes="ccccccccccccccccccscssccscssccsscccccccccccccsscsccccccsccccccc"
         inkscape:connector-curvature="0"
         style="fill:#555753;stroke:#888a85"
         id="path4"
         d="m 8590,12199 c -396,-33 -982,-430 -1823,-1235 l -210,-201 -116,50 c -348,147 -811,270 -1206,321 -327,41 -796,46 -1095,12 -495,-58 -954,-181 -1388,-373 -68,-30 -127,-53 -132,-51 -4,2 -106,96 -226,210 -668,630 -1153,980 -1546,1114 -107,36 -120,38 -238,39 -113,0 -130,-2 -175,-25 -191,-93 -275,-342 -279,-820 -3,-391 44,-842 154,-1490 43,-248 167,-875 223,-1121 l 33,-147 -32,-128 c -110,-445 -96,-887 43,-1302 24,-74 43,-135 41,-137 -2,-2 -120,-22 -263,-45 -143,-22 -273,-46 -288,-52 -30,-12 -57,-54 -57,-88 0,-35 27,-77 60,-90 27,-11 67,-7 323,34 161,25 299,46 309,46 10,0 35,-32 64,-81 26,-45 72,-115 101,-156 29,-41 53,-78 53,-82 0,-4 -91,-41 -202,-81 -112,-40 -225,-82 -251,-93 -51,-21 -77,-56 -77,-103 0,-32 59,-94 89,-94 12,0 148,46 301,101 l 280,101 110,-106 c 369,-352 810,-616 1375,-821 171,-61 463,-145 650,-185 83,-17 155,-33 162,-35 1196.8178,-189.8156 3695.3842,295.2697 4375,727 147,104 257,196 393,329 l 110,106 185,-68 c 102,-37 200,-68 218,-69 72,-1 116,67 88,133 -18,43 -19,44 -197,108 -79,28 -148,55 -152,59 -4,4 21,49 56,101 35,52 83,128 106,169 24,41 46,79 50,83 4,4 104,-8 221,-27 193,-31 217,-33 247,-21 67,28 78,130 19,168 -13,9 -105,29 -206,46 -100,16 -184,32 -187,35 -3,2 9,47 26,98 85,260 105,394 105,703 0,214 -3,269 -22,379 -24,139 -48,242 -88,373 l -25,83 40,182 c 180,820 290,1468 347,2058 25,251 25,705 1,858 -60,378 -199,524 -477,501 z" />
    </g>
  </g>
  <ellipse
     style="opacity:1;fill:#fce94f;fill-opacity:1;stroke:none;stroke-width:27.70039558;stroke-linecap:round;stroke-linejoin:miter;stroke-miterlimit:4;stroke-dasharray:none;stroke-opacity:1;paint-order:normal"
     id="path14"
     cx="289.57187"
     cy="408.56726"
     rx="71.717583"
     ry="88.267807" />
  <ellipse
     style="opacity:1;fill:#fce94f;fill-opacity:1;stroke:none;stroke-width:30.30783081;stroke-linecap:round;stroke-linejoin:miter;stroke-miterlimit:4;stroke-dasharray:none;stroke-opacity:1;paint-order:normal"
     id="path14-3"
     cx="513.0943"
     cy="394.94846"
     rx="77.234322"
     ry="98.11953" />
  <ellipse
     style="opacity:1;fill:#000000;fill-opacity:1;stroke:#000000;stroke-width:16.19199371;stroke-linecap:round;stroke-linejoin:miter;stroke-miterlimit:4;stroke-dasharray:none;stroke-opacity:1;paint-order:normal"
     id="path50"
     cx="406.73523"
     cy="516.22687"
     rx="29.159737"
     ry="24.478634" />
  <path
     style="fill:#ffffff;stroke:#000000;stroke-width:1.03527141px;stroke-linecap:butt;stroke-linejoin:miter;stroke-opacity:1"
     d="m 368.20264,605.92536 c 61.08394,9.41318 120.97203,16.28523 144.73622,-53.60601"
     id="path52"
     inkscape:connector-curvature="0"
     sodipodi:nodetypes="cc" />
</svg>
